Tidyverse Reading and Manipulating Data
…
What are the two main differences between a tibble and a data.frame?

A tibble does “fancy” printing of data and does not coerce selection with [] into vectors.

Rewrite the following nested function call using BaseR’s chaining operator:

arrange(filter(select(as_tibble(iris), starts_with("Petal"), Species),
Petal.Length < 1.55), Species)

as_tibble(iris) |> 
  select(starts_with("Petal"), Species) |> 
  filter(Petal.Length < 1.55) |> 
  arrange(Species)

# A tibble: 37 × 3
   Petal.Length Petal.Width Species
          <dbl>       <dbl> <fct>  
 1          1.4         0.2 setosa 
 2          1.4         0.2 setosa 
 3          1.3         0.2 setosa 
 4          1.5         0.2 setosa 
 5          1.4         0.2 setosa 
 6          1.4         0.3 setosa 
 7          1.5         0.2 setosa 
 8          1.4         0.2 setosa 
 9          1.5         0.1 setosa 
10          1.5         0.2 setosa 
# ℹ 27 more rows
…
create a factor to represent the types of glass, then pass to filter with our conditions

glass_type_labels <- c(" building_windows_float_processed",
                       " building_windows_non_float_processed",
                       "vehicle_windows_float_processed",
                       "vehicle_windows_non_float_processed",
                       "containers",
                       "tableware",
                       "headlamps")

glass_tbl |> 
  mutate(`Type of Glass` = factor(`Type of Glass`, levels = seq(1:7), labels = glass_type_labels)) |> 
  filter(Fe < .2 & (`Type of Glass` == "tableware" | `Type of Glass` == "headlamps"))

# A tibble: 38 × 11
      Id    RI    Na    Mg    Al    Si     K    Ca    Ba    Fe `Type of Glass`
   <dbl> <dbl> <dbl> <dbl> <dbl> <dbl> <dbl> <dbl> <dbl> <dbl> <fct>          
 1   177  1.52  14    2.39  1.56  72.4  0     9.57  0        0 tableware      
 2   178  1.52  13.8  2.41  1.19  72.8  0     9.77  0        0 tableware      
 3   179  1.52  14.5  2.24  1.62  72.4  0     9.26  0        0 tableware      
 4   180  1.52  14.1  2.19  1.66  72.7  0     9.32  0        0 tableware      
 5   181  1.51  14.4  1.74  1.54  74.6  0     7.59  0        0 tableware      
 6   182  1.52  15.0  0.78  1.74  72.5  0     9.95  0        0 tableware      
 7   183  1.52  14.2  0     2.09  72.7  0    10.9   0        0 tableware      
 8   184  1.52  14.6  0     0.56  73.5  0    11.2   0        0 tableware      
 9   185  1.51  17.4  0     0.34  75.4  0     6.65  0        0 tableware      
10   186  1.51  13.7  3.2   1.81  72.8  1.76  5.43  1.19     0 headlamps      
# ℹ 28 more rows
…
chr (2): seq_name, class
dbl (8): mcg, gvh, alm, mit, erl, pox, vac, nuc

ℹ Use `spec()` to retrieve the full column specification for this data.
ℹ Specify the column types or set `show_col_types = FALSE` to quiet this message.

add mean and medians by class

yeast_tbl |> 
  group_by(class) |> 
  mutate(across(where(is.numeric), list(mean = mean, med = median), .names = "{.col}_{.fn}"))

# A tibble: 1,484 × 22
# Groups:   class [10]
     mcg   gvh   alm   mit   erl   pox   vac class mcg_mean mcg_med gvh_mean
   <dbl> <dbl> <dbl> <dbl> <dbl> <dbl> <dbl> <chr>    <dbl>   <dbl>    <dbl>
 1  0.58  0.61  0.47  0.13   0.5   0    0.48 MIT      0.521    0.51    0.533
 2  0.43  0.67  0.48  0.27   0.5   0    0.53 MIT      0.521    0.51    0.533
 3  0.64  0.62  0.49  0.15   0.5   0    0.53 MIT      0.521    0.51    0.533
 4  0.58  0.44  0.57  0.13   0.5   0    0.54 NUC      0.452    0.45    0.456
 5  0.42  0.44  0.48  0.54   0.5   0    0.48 MIT      0.521    0.51    0.533
 6  0.51  0.4   0.56  0.17   0.5   0.5  0.49 CYT      0.481    0.48    0.470
 7  0.5   0.54  0.48  0.65   0.5   0    0.53 MIT      0.521    0.51    0.533
 8  0.48  0.45  0.59  0.2    0.5   0    0.58 NUC      0.452    0.45    0.456
 9  0.55  0.5   0.66  0.36   0.5   0    0.49 MIT      0.521    0.51    0.533
10  0.4   0.39  0.6   0.15   0.5   0    0.58 CYT      0.481    0.48    0.470
# ℹ 1,474 more rows
# ℹ 11 more variables: gvh_med <dbl>, alm_mean <dbl>, alm_med <dbl>,
#   mit_mean <dbl>, mit_med <dbl>, erl_mean <dbl>, erl_med <dbl>,
#   pox_mean <dbl>, pox_med <dbl>, vac_mean <dbl>, vac_med <dbl>

Task 3

import and print white wine data

white_wine_tbl <- read_xlsx("./data/white-wine.xlsx", sheet = 1)
white_wine_tbl

# A tibble: 4,898 × 12
   `fixed acidity` `volatile acidity` `citric acid` `residual sugar` chlorides
             <dbl>              <dbl>         <dbl>            <dbl>     <dbl>
 1               7               0.27          0.36             20.7     0.045
 2              63               0.3           0.34              1.6     0.049
 3              81               0.28          0.4               6.9     0.05 
 4              72               0.23          0.32              8.5     0.058
 5              72               0.23          0.32              8.5     0.058
 6              81               0.28          0.4               6.9     0.05 
 7              62               0.32          0.16              7       0.045
 8               7               0.27          0.36             20.7     0.045
 9              63               0.3           0.34              1.6     0.049
10              81               0.22          0.43              1.5     0.044
# ℹ 4,888 more rows
# ℹ 7 more variables: `free sulfur dioxide` <dbl>,
#   `total sulfur dioxide` <dbl>, density <dbl>, pH <dbl>, sulphates <dbl>,
#   alcohol <dbl>, quality <dbl>

read names and apply to previous tibble, then add white column

white_wine_cols <- read_xlsx("./data/white-wine.xlsx", sheet = 2) |> 
  pull(1)

white_wine_tbl <- white_wine_tbl |> 
  set_names(white_wine_cols) |> 
  mutate(color = "white")

white_wine_tbl

# A tibble: 4,898 × 13
   fixed_acidity volatile_acidity citric_acid residual_sugar chlorides
           <dbl>            <dbl>       <dbl>          <dbl>     <dbl>
 1             7             0.27        0.36           20.7     0.045
 2            63             0.3         0.34            1.6     0.049
 3            81             0.28        0.4             6.9     0.05 
 4            72             0.23        0.32            8.5     0.058
 5            72             0.23        0.32            8.5     0.058
 6            81             0.28        0.4             6.9     0.05 
 7            62             0.32        0.16            7       0.045
 8             7             0.27        0.36           20.7     0.045
 9            63             0.3         0.34            1.6     0.049
10            81             0.22        0.43            1.5     0.044
# ℹ 4,888 more rows
# ℹ 8 more variables: free_sulfur_dioxide <dbl>, total_sulfur_dioxide <dbl>,
#   density <dbl>, pH <dbl>, sulphates <dbl>, alcohol <dbl>, quality <dbl>,
#   color <chr>
…
Rows: 1599 Columns: 12
── Column specification ────────────────────────────────────────────────────────
Delimiter: ";"
dbl (12): X1, X2, X3, X4, X5, X6, X7, X8, X9, X10, X11, X12

ℹ Use `spec()` to retrieve the full column specification for this data.
ℹ Specify the column types or set `show_col_types = FALSE` to quiet this message.

red_wine_tbl <- red_wine_tbl |> 
  set_names(white_wine_cols) |> 
  mutate(color = "red")

red_wine_tbl

# A tibble: 1,599 × 13
   fixed_acidity volatile_acidity citric_acid residual_sugar chlorides
           <dbl>            <dbl>       <dbl>          <dbl>     <dbl>
 1           7.4             0.7         0               1.9     0.076
 2           7.8             0.88        0               2.6     0.098
 3           7.8             0.76        0.04            2.3     0.092
 4          11.2             0.28        0.56            1.9     0.075
 5           7.4             0.7         0               1.9     0.076
 6           7.4             0.66        0               1.8     0.075
 7           7.9             0.6         0.06            1.6     0.069
 8           7.3             0.65        0               1.2     0.065
 9           7.8             0.58        0.02            2       0.073
10           7.5             0.5         0.36            6.1     0.071
# ℹ 1,589 more rows
# ℹ 8 more variables: free_sulfur_dioxide <dbl>, total_sulfur_dioxide <dbl>,
#   density <dbl>, pH <dbl>, sulphates <dbl>, alcohol <dbl>, quality <dbl>,
#   color <chr>

now we combine and use a chain to filter, sort, select, and summarize

wine_tbl <- bind_rows(red_wine_tbl, white_wine_tbl) |> 
  filter(quality > 6.5 & alcohol < 132) |> 
  arrange(desc(quality)) |> 
  select(contains("acid"), alcohol, color, quality) |> 
  group_by(quality) |> 
  mutate(qual_grp_alc_mean = mean(alcohol), qual_grp_alc_sd = sd(alcohol))

wine_tbl

# A tibble: 1,206 × 8
# Groups:   quality [3]
   fixed_acidity volatile_acidity citric_acid alcohol color quality
           <dbl>            <dbl>       <dbl>   <dbl> <chr>   <dbl>
 1          91               0.27        0.45   104   white       9
 2          66               0.36        0.29   124   white       9
 3          74               0.24        0.36   125   white       9
 4          69               0.36        0.34   127   white       9
 5          71               0.26        0.49   129   white       9
 6           7.9             0.35        0.46    12.8 red         8
 7          10.3             0.32        0.45    12.6 red         8
 8           5.6             0.85        0.05    12.9 red         8
 9          12.6             0.31        0.72     9.8 red         8
10          11.3             0.62        0.67    13.4 red         8
# ℹ 1,196 more rows
# ℹ 2 more variables: qual_grp_alc_mean <dbl>, qual_grp_alc_sd <dbl>
